{
  "project_info": {
    "project_number": "279201812232",
    "project_id": "blackcoffe-40265",
    "storage_bucket": "blackcoffe-40265.appspot.com"
  },
  "client": [
    {
      "client_info": {
        "mobilesdk_app_id": "1:279201812232:android:426f3c1fad4b7e18e3a6bd",
        "android_client_info": {
          "package_name": "com.blackcoffe"
        }
      },
      "oauth_client": [
        {
          "client_id": "279201812232-qcg997a1v6tutqhve80jefup8do4tmms.apps.googleusercontent.com",
          "client_type": 1,
          "android_info": {
            "package_name": "com.blackcoffe",
            "certificate_hash": "5e8f16062ea3cd2c4a0d547876baa6f38cabf625"
          }
        },
        {
          "client_id": "279201812232-h5elsa9cm8vrbhqn04h7jdnkkhqj0mn4.apps.googleusercontent.com",
          "client_type": 3
        }
      ],
      "api_key": [
        {
          "current_key": "AIzaSyD2qNnQoAfmvejl7_sP1NexS2NdgTbqqzQ"
        }
      ],
      "services": {
        "appinvite_service": {
          "other_platform_oauth_client": [
            {
              "client_id": "279201812232-h5elsa9cm8vrbhqn04h7jdnkkhqj0mn4.apps.googleusercontent.com",
              "client_type": 3
            }
          ]
        }
      }
    }
  ],
  "configuration_version": "1"
}